Processor+FPGA/alu.vcd
$comment Generated by Amaranth $end
$date 2024-11-09 10:13:21.772671 $end
$timescale 1 fs $end
$scope module bench $end
$scope module top $end
$var wire 6 ! alu_ctrl $end
$var wire 32 " o $end
$var wire 32 # a $end
$var wire 32 $ b $end
$var wire 3 % nzc $end
$upscope $end
$upscope $end
$enddefinitions $end
#0
$dumpvars
b0 !
b1000 "
b101 #
b11 $
b0 %
$end
#1000000000
b1010 #
b1101 "
b100 $
b1110 "
b1 !
b110 "
#2000000000
b101 $
b101 "
#3000000000
b1 #
b11111111111111111111111111111100 "
b10 $
b11111111111111111111111111111111 "
b111 !
b100 "
#4000000000
b11111111111111111111111111110000 #
b11111111111111111111111111000000 "
b1000 !
b11111111111111111111111111111100 "
#5000000000
b100 #
b1 "
b11111111111111111111111111111110 $
b0 "
b10 !
b11111111111111111111111111111000 "
#6000000000
b11111111111111111111111111110111 #
b10010 "
b11 $
b11111111111111111111111111100101 "
b11 !
b11111111111111111111111111111101 "
#7000000000
b11111111111111111111111111111111 #
b11111111111111111111111111111111 "
b10 $
b100 !
b10 "
#8000000000
b101 !
b11111111111111111111111111111111 "
#9000000000
b1 $
b110 !
b11111111111111111111111111111110 "
