Processor+FPGA/alu_test.vcd
$comment Generated by Amaranth $end
$date 2024-10-09 00:13:30.543947 $end
$timescale 1 fs $end
$scope module bench $end
$scope module top $end
$var wire 4 ! alu_ctrl $end
$var wire 32 " result $end
$var wire 32 # a $end
$var wire 32 $ b $end
$var wire 32 % o $end
$upscope $end
$upscope $end
$enddefinitions $end
#0
$dumpvars
b0 !
b0 "
b0 #
b0 $
b0 %
$end
#1000000000
b101 #
b101 "
b101 %
b11 $
b1000 "
b1000 %
#2000000000
b1010 #
b1101 "
b1101 %
b100 $
b1110 "
b1110 %
b1 !
b110 "
b110 %
#3000000000
b1100 #
b1000 "
b1000 %
b1010 $
b10 "
b10 %
b10 !
b1000 "
b1000 %
#4000000000
b11 !
b1110 "
b1110 %
#5000000000
b100 !
b110 "
b110 %
#6000000000
b1 #
b1011 "
b1011 %
b10 $
b11 "
b11 %
b101 !
b100 "
b100 %
#7000000000
b1000 #
b100000 "
b100000 %
b110 !
b10 "
b10 %
#8000000000
b11110000 #
b111100 "
b111100 %
b111 !
