Processor+FPGA/rf.vcd
$comment Generated by Amaranth $end
$date 2024-11-09 10:13:26.041800 $end
$timescale 1 fs $end
$scope module bench $end
$scope module top $end
$var wire 1 ! clk $end
$var wire 1 " rst $end
$var wire 32 # read_data1 $end
$var wire 4 $ read_addr1 $end
$var wire 32 % $signal $end
$var wire 32 & $signal$5 $end
$var wire 32 ' $signal$6 $end
$var wire 32 ( $signal$7 $end
$var wire 32 ) $signal$8 $end
$var wire 32 * $signal$9 $end
$var wire 32 + $signal$10 $end
$var wire 32 , $signal$11 $end
$var wire 32 - $signal$12 $end
$var wire 32 . $signal$13 $end
$var wire 32 / $signal$14 $end
$var wire 32 0 $signal$15 $end
$var wire 32 1 $signal$16 $end
$var wire 32 2 $signal$17 $end
$var wire 32 3 $signal$18 $end
$var wire 32 4 $signal$19 $end
$var wire 32 5 read_data2 $end
$var wire 4 6 read_addr2 $end
$var wire 1 7 write_enable $end
$var wire 4 8 write_addr $end
$var wire 32 9 write_data $end
$upscope $end
$upscope $end
$enddefinitions $end
#0
$dumpvars
0!
0"
b0 #
b0 $
b0 %
b0 &
b0 '
b0 (
b0 )
b0 *
b0 +
b0 ,
b0 -
b0 .
b0 /
b0 0
b0 1
b0 2
b0 3
b0 4
b0 5
b0 6
17
b1 8
b11011110101011011011111011101111 9
$end
#500000000
1!
b11011110101011011011111011101111 &
07
#1000000000
0!
#1500000000
1!
b1 $
#2000000000
0!
#2500000000
1!
b11011110101011011011111011101111 #
#3000000000
0!
#3500000000
1!
b101 8
b11001010111111101011101010111110 9
17
#4000000000
0!
#4500000000
1!
b11001010111111101011101010111110 *
07
#5000000000
0!
#5500000000
1!
b101 6
#6000000000
0!
#6500000000
1!
b11001010111111101011101010111110 5
